%YAML 1.1
%TAG !u! tag:unity3d.com,2011:
--- !u!74 &7400000
AnimationClip:
  m_ObjectHideFlags: 0
  m_CorrespondingSourceObject: {fileID: 0}
  m_PrefabInstance: {fileID: 0}
  m_PrefabAsset: {fileID: 0}
  m_Name: Fox_b1_3_2
  serializedVersion: 6
  m_Legacy: 0
  m_Compressed: 0
  m_UseHighQualityCurve: 1
  m_RotationCurves: []
  m_CompressedRotationCurves: []
  m_EulerCurves: []
  m_PositionCurves: []
  m_ScaleCurves: []
  m_FloatCurves: []
  m_PPtrCurves:
  - curve:
    - time: 0
      value: {fileID: 21300000, guid: 43929f297dcf1f94fb88cfaefedcce8a, type: 3}
    - time: 0.13333334
      value: {fileID: 21300000, guid: 9024cbb27867b9d41ab30e5cd80e37ea, type: 3}
    - time: 0.26666668
      value: {fileID: 21300000, guid: 0407fa5eaf9077849a11f46bf3380b90, type: 3}
    - time: 0.31666666
      value: {fileID: 21300000, guid: 1f581d2f361e7ec479d2e2fa42883c8d, type: 3}
    - time: 0.5
      value: {fileID: 21300000, guid: 8673313584768ba41b83e27db850396e, type: 3}
    - time: 0.6333333
      value: {fileID: 21300000, guid: 8fbfbd2e488442e4ca746815bc445cc6, type: 3}
    - time: 0.76666665
      value: {fileID: 21300000, guid: 79f1e55d59c59cd4baeae54af1eeed54, type: 3}
    - time: 0.8833333
      value: {fileID: 21300000, guid: 79f1e55d59c59cd4baeae54af1eeed54, type: 3}
    attribute: m_Sprite
    path: 
    classID: 212
    script: {fileID: 0}
  m_SampleRate: 60
  m_WrapMode: 0
  m_Bounds:
    m_Center: {x: 0, y: 0, z: 0}
    m_Extent: {x: 0, y: 0, z: 0}
  m_ClipBindingConstant:
    genericBindings:
    - serializedVersion: 2
      path: 0
      attribute: 0
      script: {fileID: 0}
      typeID: 212
      customType: 23
      isPPtrCurve: 1
    pptrCurveMapping:
    - {fileID: 21300000, guid: 43929f297dcf1f94fb88cfaefedcce8a, type: 3}
    - {fileID: 21300000, guid: 9024cbb27867b9d41ab30e5cd80e37ea, type: 3}
    - {fileID: 21300000, guid: 0407fa5eaf9077849a11f46bf3380b90, type: 3}
    - {fileID: 21300000, guid: 1f581d2f361e7ec479d2e2fa42883c8d, type: 3}
    - {fileID: 21300000, guid: 8673313584768ba41b83e27db850396e, type: 3}
    - {fileID: 21300000, guid: 8fbfbd2e488442e4ca746815bc445cc6, type: 3}
    - {fileID: 21300000, guid: 79f1e55d59c59cd4baeae54af1eeed54, type: 3}
    - {fileID: 21300000, guid: 79f1e55d59c59cd4baeae54af1eeed54, type: 3}
  m_AnimationClipSettings:
    serializedVersion: 2
    m_AdditiveReferencePoseClip: {fileID: 0}
    m_AdditiveReferencePoseTime: 0
    m_StartTime: 0
    m_StopTime: 0.9
    m_OrientationOffsetY: 0
    m_Level: 0
    m_CycleOffset: 0
    m_HasAdditiveReferencePose: 0
    m_LoopTime: 1
    m_LoopBlend: 0
    m_LoopBlendOrientation: 0
    m_LoopBlendPositionY: 0
    m_LoopBlendPositionXZ: 0
    m_KeepOriginalOrientation: 0
    m_KeepOriginalPositionY: 1
    m_KeepOriginalPositionXZ: 0
    m_HeightFromFeet: 0
    m_Mirror: 0
  m_EditorCurves: []
  m_EulerEditorCurves: []
  m_HasGenericRootTransform: 0
  m_HasMotionFloatCurves: 0
  m_Events:
  - time: 0
    functionName: StartAttack
    data: 
    objectReferenceParameter: {fileID: 0}
    floatParameter: 0
    intParameter: 0
    messageOptions: 0
  - time: 0.13333334
    functionName: AttackMove
    data: b1_3_2
    objectReferenceParameter: {fileID: 0}
    floatParameter: 0
    intParameter: 0
    messageOptions: 0
  - time: 0.3
    functionName: ResetTriggers
    data: 
    objectReferenceParameter: {fileID: 0}
    floatParameter: 0
    intParameter: 0
    messageOptions: 0
  - time: 0.31666666
    functionName: ActivateHitBox
    data: b1_3_2
    objectReferenceParameter: {fileID: 0}
    floatParameter: 0
    intParameter: 0
    messageOptions: 0
  - time: 0.4
    functionName: DeactivateHitBox
    data: b1_3_2
    objectReferenceParameter: {fileID: 0}
    floatParameter: 0
    intParameter: 0
    messageOptions: 0
  - time: 0.8833333
    functionName: EndAttack
    data: 
    objectReferenceParameter: {fileID: 0}
    floatParameter: 0
    intParameter: 0
    messageOptions: 0
