%YAML 1.1
%TAG !u! tag:unity3d.com,2011:
--- !u!74 &7400000
AnimationClip:
  m_ObjectHideFlags: 0
  m_CorrespondingSourceObject: {fileID: 0}
  m_PrefabInstance: {fileID: 0}
  m_PrefabAsset: {fileID: 0}
  m_Name: Fox_Electric
  serializedVersion: 6
  m_Legacy: 0
  m_Compressed: 0
  m_UseHighQualityCurve: 1
  m_RotationCurves: []
  m_CompressedRotationCurves: []
  m_EulerCurves: []
  m_PositionCurves: []
  m_ScaleCurves: []
  m_FloatCurves: []
  m_PPtrCurves:
  - curve:
    - time: 0
      value: {fileID: 21300000, guid: 88dac9d1944317f43a77e1eefb4ed639, type: 3}
    - time: 0.05
      value: {fileID: 21300000, guid: ace320367cf6d3043b0efc0b86efbcca, type: 3}
    - time: 0.1
      value: {fileID: 21300000, guid: a66687475e8298d4e8b5e14727fbff26, type: 3}
    - time: 0.23333333
      value: {fileID: 21300000, guid: 093bdca1f7cf47e4c9dc171b7aa9d70d, type: 3}
    - time: 0.3
      value: {fileID: 21300000, guid: 6ce2f17a170d40645917b83bf36883b0, type: 3}
    - time: 0.36666667
      value: {fileID: 21300000, guid: 9ebfab33c0a73bc42b558ec26b72af33, type: 3}
    - time: 0.43333334
      value: {fileID: 21300000, guid: ba34717c8d1072d499c95ad65ed9e72e, type: 3}
    - time: 0.5
      value: {fileID: 21300000, guid: 9bb9585f71bcf1b428d1946d5b9a9498, type: 3}
    - time: 0.55
      value: {fileID: 21300000, guid: 041169d807e84ca4c86a2da4c89c05bc, type: 3}
    attribute: m_Sprite
    path: 
    classID: 212
    script: {fileID: 0}
  m_SampleRate: 60
  m_WrapMode: 0
  m_Bounds:
    m_Center: {x: 0, y: 0, z: 0}
    m_Extent: {x: 0, y: 0, z: 0}
  m_ClipBindingConstant:
    genericBindings:
    - serializedVersion: 2
      path: 0
      attribute: 0
      script: {fileID: 0}
      typeID: 212
      customType: 23
      isPPtrCurve: 1
    pptrCurveMapping:
    - {fileID: 21300000, guid: 88dac9d1944317f43a77e1eefb4ed639, type: 3}
    - {fileID: 21300000, guid: ace320367cf6d3043b0efc0b86efbcca, type: 3}
    - {fileID: 21300000, guid: a66687475e8298d4e8b5e14727fbff26, type: 3}
    - {fileID: 21300000, guid: 093bdca1f7cf47e4c9dc171b7aa9d70d, type: 3}
    - {fileID: 21300000, guid: 6ce2f17a170d40645917b83bf36883b0, type: 3}
    - {fileID: 21300000, guid: 9ebfab33c0a73bc42b558ec26b72af33, type: 3}
    - {fileID: 21300000, guid: ba34717c8d1072d499c95ad65ed9e72e, type: 3}
    - {fileID: 21300000, guid: 9bb9585f71bcf1b428d1946d5b9a9498, type: 3}
    - {fileID: 21300000, guid: 041169d807e84ca4c86a2da4c89c05bc, type: 3}
  m_AnimationClipSettings:
    serializedVersion: 2
    m_AdditiveReferencePoseClip: {fileID: 0}
    m_AdditiveReferencePoseTime: 0
    m_StartTime: 0
    m_StopTime: 0.56666666
    m_OrientationOffsetY: 0
    m_Level: 0
    m_CycleOffset: 0
    m_HasAdditiveReferencePose: 0
    m_LoopTime: 1
    m_LoopBlend: 0
    m_LoopBlendOrientation: 0
    m_LoopBlendPositionY: 0
    m_LoopBlendPositionXZ: 0
    m_KeepOriginalOrientation: 0
    m_KeepOriginalPositionY: 1
    m_KeepOriginalPositionXZ: 0
    m_HeightFromFeet: 0
    m_Mirror: 0
  m_EditorCurves: []
  m_EulerEditorCurves: []
  m_HasGenericRootTransform: 0
  m_HasMotionFloatCurves: 0
  m_Events:
  - time: 0
    functionName: EndWaveDash
    data: 
    objectReferenceParameter: {fileID: 0}
    floatParameter: 0
    intParameter: 0
    messageOptions: 0
  - time: 0
    functionName: AttackMove
    data: fdf2
    objectReferenceParameter: {fileID: 0}
    floatParameter: 0
    intParameter: 56
    messageOptions: 0
  - time: 0.05
    functionName: ActivateHitBox
    data: fdf2
    objectReferenceParameter: {fileID: 0}
    floatParameter: 0
    intParameter: 56
    messageOptions: 0
  - time: 0.1
    functionName: DeactivateHitBox
    data: fdf2
    objectReferenceParameter: {fileID: 0}
    floatParameter: 0
    intParameter: 56
    messageOptions: 0
  - time: 0.55
    functionName: EndAttack
    data: 
    objectReferenceParameter: {fileID: 0}
    floatParameter: 0
    intParameter: 0
    messageOptions: 0
