%YAML 1.1
%TAG !u! tag:unity3d.com,2011:
--- !u!74 &7400000
AnimationClip:
  m_ObjectHideFlags: 0
  m_CorrespondingSourceObject: {fileID: 0}
  m_PrefabInstance: {fileID: 0}
  m_PrefabAsset: {fileID: 0}
  m_Name: Fox_b1
  serializedVersion: 6
  m_Legacy: 0
  m_Compressed: 0
  m_UseHighQualityCurve: 1
  m_RotationCurves: []
  m_CompressedRotationCurves: []
  m_EulerCurves: []
  m_PositionCurves: []
  m_ScaleCurves: []
  m_FloatCurves: []
  m_PPtrCurves:
  - curve:
    - time: 0
      value: {fileID: 21300000, guid: 5b63642b6a943524bb8b42ead147f6b8, type: 3}
    - time: 0.1
      value: {fileID: 21300000, guid: 7681aaa5f9f12a1408b690273e915141, type: 3}
    - time: 0.2
      value: {fileID: 21300000, guid: f43c579aae57f2543ae98933d37b71e8, type: 3}
    - time: 0.26666668
      value: {fileID: 21300000, guid: 7baa9bda32b1e5e4f9da44a6e0fca749, type: 3}
    - time: 0.33333334
      value: {fileID: 21300000, guid: da2c0ad9e09314a438af73780414e7cd, type: 3}
    - time: 0.51666665
      value: {fileID: 21300000, guid: 7baa9bda32b1e5e4f9da44a6e0fca749, type: 3}
    - time: 0.6
      value: {fileID: 21300000, guid: 7681aaa5f9f12a1408b690273e915141, type: 3}
    - time: 0.73333335
      value: {fileID: 21300000, guid: 7681aaa5f9f12a1408b690273e915141, type: 3}
    attribute: m_Sprite
    path: 
    classID: 212
    script: {fileID: 0}
  m_SampleRate: 60
  m_WrapMode: 0
  m_Bounds:
    m_Center: {x: 0, y: 0, z: 0}
    m_Extent: {x: 0, y: 0, z: 0}
  m_ClipBindingConstant:
    genericBindings:
    - serializedVersion: 2
      path: 0
      attribute: 0
      script: {fileID: 0}
      typeID: 212
      customType: 23
      isPPtrCurve: 1
    pptrCurveMapping:
    - {fileID: 21300000, guid: 5b63642b6a943524bb8b42ead147f6b8, type: 3}
    - {fileID: 21300000, guid: 7681aaa5f9f12a1408b690273e915141, type: 3}
    - {fileID: 21300000, guid: f43c579aae57f2543ae98933d37b71e8, type: 3}
    - {fileID: 21300000, guid: 7baa9bda32b1e5e4f9da44a6e0fca749, type: 3}
    - {fileID: 21300000, guid: da2c0ad9e09314a438af73780414e7cd, type: 3}
    - {fileID: 21300000, guid: 7baa9bda32b1e5e4f9da44a6e0fca749, type: 3}
    - {fileID: 21300000, guid: 7681aaa5f9f12a1408b690273e915141, type: 3}
    - {fileID: 21300000, guid: 7681aaa5f9f12a1408b690273e915141, type: 3}
  m_AnimationClipSettings:
    serializedVersion: 2
    m_AdditiveReferencePoseClip: {fileID: 0}
    m_AdditiveReferencePoseTime: 0
    m_StartTime: 0
    m_StopTime: 0.75
    m_OrientationOffsetY: 0
    m_Level: 0
    m_CycleOffset: 0
    m_HasAdditiveReferencePose: 0
    m_LoopTime: 1
    m_LoopBlend: 0
    m_LoopBlendOrientation: 0
    m_LoopBlendPositionY: 0
    m_LoopBlendPositionXZ: 0
    m_KeepOriginalOrientation: 0
    m_KeepOriginalPositionY: 1
    m_KeepOriginalPositionXZ: 0
    m_HeightFromFeet: 0
    m_Mirror: 0
  m_EditorCurves: []
  m_EulerEditorCurves: []
  m_HasGenericRootTransform: 0
  m_HasMotionFloatCurves: 0
  m_Events:
  - time: 0
    functionName: StartAttack
    data: 
    objectReferenceParameter: {fileID: 0}
    floatParameter: 0
    intParameter: 0
    messageOptions: 0
  - time: 0.2
    functionName: AttackMove
    data: b1
    objectReferenceParameter: {fileID: 0}
    floatParameter: 0
    intParameter: 20
    messageOptions: 0
  - time: 0.25
    functionName: ResetTriggers
    data: 
    objectReferenceParameter: {fileID: 0}
    floatParameter: 0
    intParameter: 0
    messageOptions: 0
  - time: 0.26666668
    functionName: ActivateHitBox
    data: b1
    objectReferenceParameter: {fileID: 0}
    floatParameter: 0
    intParameter: 20
    messageOptions: 0
  - time: 0.33333334
    functionName: DeactivateHitBox
    data: b1
    objectReferenceParameter: {fileID: 0}
    floatParameter: 0
    intParameter: 20
    messageOptions: 0
  - time: 0.73333335
    functionName: EndAttack
    data: 
    objectReferenceParameter: {fileID: 0}
    floatParameter: 0
    intParameter: 0
    messageOptions: 0
