%YAML 1.1
%TAG !u! tag:unity3d.com,2011:
--- !u!74 &7400000
AnimationClip:
  m_ObjectHideFlags: 0
  m_CorrespondingSourceObject: {fileID: 0}
  m_PrefabInstance: {fileID: 0}
  m_PrefabAsset: {fileID: 0}
  m_Name: Fox_RollBackward
  serializedVersion: 6
  m_Legacy: 0
  m_Compressed: 0
  m_UseHighQualityCurve: 1
  m_RotationCurves: []
  m_CompressedRotationCurves: []
  m_EulerCurves: []
  m_PositionCurves: []
  m_ScaleCurves: []
  m_FloatCurves: []
  m_PPtrCurves:
  - curve:
    - time: 0
      value: {fileID: 21300000, guid: bb1f49f5237b6e2469d2be0ae7a33a8d, type: 3}
    - time: 0.13333334
      value: {fileID: 21300000, guid: efab81867e0abca49a36b63beb4d5c45, type: 3}
    - time: 0.26666668
      value: {fileID: 21300000, guid: 2a1176b32afa274409e5a8b2e302929f, type: 3}
    - time: 0.4
      value: {fileID: 21300000, guid: 096b0f348afbd60478da67b98d169505, type: 3}
    - time: 0.53333336
      value: {fileID: 21300000, guid: b65c0dd0f62177c4bab5a7373af0bf3b, type: 3}
    - time: 0.6666667
      value: {fileID: 21300000, guid: b617ff5650997d44eadb1f98f89f6eb1, type: 3}
    - time: 0.8
      value: {fileID: 21300000, guid: 7386b365d1dd3bd4db3f56f97650165f, type: 3}
    - time: 0.93333334
      value: {fileID: 21300000, guid: 2c050817b6c9bd245b64d3d899c01019, type: 3}
    - time: 1.05
      value: {fileID: 21300000, guid: 2c050817b6c9bd245b64d3d899c01019, type: 3}
    attribute: m_Sprite
    path: 
    classID: 212
    script: {fileID: 0}
  m_SampleRate: 60
  m_WrapMode: 0
  m_Bounds:
    m_Center: {x: 0, y: 0, z: 0}
    m_Extent: {x: 0, y: 0, z: 0}
  m_ClipBindingConstant:
    genericBindings:
    - serializedVersion: 2
      path: 0
      attribute: 0
      script: {fileID: 0}
      typeID: 212
      customType: 23
      isPPtrCurve: 1
    pptrCurveMapping:
    - {fileID: 21300000, guid: bb1f49f5237b6e2469d2be0ae7a33a8d, type: 3}
    - {fileID: 21300000, guid: efab81867e0abca49a36b63beb4d5c45, type: 3}
    - {fileID: 21300000, guid: 2a1176b32afa274409e5a8b2e302929f, type: 3}
    - {fileID: 21300000, guid: 096b0f348afbd60478da67b98d169505, type: 3}
    - {fileID: 21300000, guid: b65c0dd0f62177c4bab5a7373af0bf3b, type: 3}
    - {fileID: 21300000, guid: b617ff5650997d44eadb1f98f89f6eb1, type: 3}
    - {fileID: 21300000, guid: 7386b365d1dd3bd4db3f56f97650165f, type: 3}
    - {fileID: 21300000, guid: 2c050817b6c9bd245b64d3d899c01019, type: 3}
    - {fileID: 21300000, guid: 2c050817b6c9bd245b64d3d899c01019, type: 3}
  m_AnimationClipSettings:
    serializedVersion: 2
    m_AdditiveReferencePoseClip: {fileID: 0}
    m_AdditiveReferencePoseTime: 0
    m_StartTime: 0
    m_StopTime: 1.0666666
    m_OrientationOffsetY: 0
    m_Level: 0
    m_CycleOffset: 0
    m_HasAdditiveReferencePose: 0
    m_LoopTime: 1
    m_LoopBlend: 0
    m_LoopBlendOrientation: 0
    m_LoopBlendPositionY: 0
    m_LoopBlendPositionXZ: 0
    m_KeepOriginalOrientation: 0
    m_KeepOriginalPositionY: 1
    m_KeepOriginalPositionXZ: 0
    m_HeightFromFeet: 0
    m_Mirror: 0
  m_EditorCurves: []
  m_EulerEditorCurves: []
  m_HasGenericRootTransform: 0
  m_HasMotionFloatCurves: 0
  m_Events:
  - time: 0.13333334
    functionName: TransformHurtbox
    data: Getup
    objectReferenceParameter: {fileID: 0}
    floatParameter: 0
    intParameter: 0
    messageOptions: 0
  - time: 1.05
    functionName: FinishGetUp
    data: 
    objectReferenceParameter: {fileID: 0}
    floatParameter: 0
    intParameter: 0
    messageOptions: 0
  - time: 1.05
    functionName: TransformHurtbox
    data: Standing
    objectReferenceParameter: {fileID: 0}
    floatParameter: 0
    intParameter: 0
    messageOptions: 0
