%YAML 1.1
%TAG !u! tag:unity3d.com,2011:
--- !u!74 &7400000
AnimationClip:
  m_ObjectHideFlags: 0
  m_CorrespondingSourceObject: {fileID: 0}
  m_PrefabInstance: {fileID: 0}
  m_PrefabAsset: {fileID: 0}
  m_Name: Fox_c4
  serializedVersion: 6
  m_Legacy: 0
  m_Compressed: 0
  m_UseHighQualityCurve: 1
  m_RotationCurves: []
  m_CompressedRotationCurves: []
  m_EulerCurves: []
  m_PositionCurves: []
  m_ScaleCurves: []
  m_FloatCurves: []
  m_PPtrCurves:
  - curve:
    - time: 0
      value: {fileID: 21300000, guid: 2252469376ad00c469f72d5a15fbef74, type: 3}
    - time: 0.05
      value: {fileID: 21300000, guid: a4c03e34179e1084fa0b8e4ea20b568b, type: 3}
    - time: 0.1
      value: {fileID: 21300000, guid: 2c5c451313e36d347b0636805790ae41, type: 3}
    - time: 0.2
      value: {fileID: 21300000, guid: a6bfb18348ecc4043b5db16681df2e7a, type: 3}
    - time: 0.3
      value: {fileID: 21300000, guid: a6bfb18348ecc4043b5db16681df2e7a, type: 3}
    attribute: m_Sprite
    path: 
    classID: 212
    script: {fileID: 0}
  m_SampleRate: 60
  m_WrapMode: 0
  m_Bounds:
    m_Center: {x: 0, y: 0, z: 0}
    m_Extent: {x: 0, y: 0, z: 0}
  m_ClipBindingConstant:
    genericBindings:
    - serializedVersion: 2
      path: 0
      attribute: 0
      script: {fileID: 0}
      typeID: 212
      customType: 23
      isPPtrCurve: 1
    pptrCurveMapping:
    - {fileID: 21300000, guid: 2252469376ad00c469f72d5a15fbef74, type: 3}
    - {fileID: 21300000, guid: a4c03e34179e1084fa0b8e4ea20b568b, type: 3}
    - {fileID: 21300000, guid: 2c5c451313e36d347b0636805790ae41, type: 3}
    - {fileID: 21300000, guid: a6bfb18348ecc4043b5db16681df2e7a, type: 3}
    - {fileID: 21300000, guid: a6bfb18348ecc4043b5db16681df2e7a, type: 3}
  m_AnimationClipSettings:
    serializedVersion: 2
    m_AdditiveReferencePoseClip: {fileID: 0}
    m_AdditiveReferencePoseTime: 0
    m_StartTime: 0
    m_StopTime: 0.3166667
    m_OrientationOffsetY: 0
    m_Level: 0
    m_CycleOffset: 0
    m_HasAdditiveReferencePose: 0
    m_LoopTime: 1
    m_LoopBlend: 0
    m_LoopBlendOrientation: 0
    m_LoopBlendPositionY: 0
    m_LoopBlendPositionXZ: 0
    m_KeepOriginalOrientation: 0
    m_KeepOriginalPositionY: 1
    m_KeepOriginalPositionXZ: 0
    m_HeightFromFeet: 0
    m_Mirror: 0
  m_EditorCurves: []
  m_EulerEditorCurves: []
  m_HasGenericRootTransform: 0
  m_HasMotionFloatCurves: 0
  m_Events:
  - time: 0.05
    functionName: ActivateHitBox
    data: c4
    objectReferenceParameter: {fileID: 0}
    floatParameter: 0
    intParameter: 7
    messageOptions: 0
  - time: 0.1
    functionName: DeactivateHitBox
    data: c4
    objectReferenceParameter: {fileID: 0}
    floatParameter: 0
    intParameter: 7
    messageOptions: 0
  - time: 0.3
    functionName: EndAttack
    data: 
    objectReferenceParameter: {fileID: 0}
    floatParameter: 0
    intParameter: 0
    messageOptions: 0
