%YAML 1.1
%TAG !u! tag:unity3d.com,2011:
--- !u!13 &1
InputManager:
  m_ObjectHideFlags: 0
  serializedVersion: 2
  m_Axes:
  - serializedVersion: 3
    m_Name: Horizontal
    descriptiveName: 
    descriptiveNegativeName: 
    negativeButton: a
    positiveButton: d
    altNegativeButton: 
    altPositiveButton: 
    gravity: 1000
    dead: 0.001
    sensitivity: 1000
    snap: 1
    invert: 0
    type: 0
    axis: 0
    joyNum: 1
  - serializedVersion: 3
    m_Name: Horizontal2
    descriptiveName: 
    descriptiveNegativeName: 
    negativeButton: left
    positiveButton: right
    altNegativeButton: 
    altPositiveButton: 
    gravity: 1000
    dead: 0.001
    sensitivity: 1000
    snap: 1
    invert: 0
    type: 0
    axis: 0
    joyNum: 2
  - serializedVersion: 3
    m_Name: Vertical
    descriptiveName: 
    descriptiveNegativeName: 
    negativeButton: s
    positiveButton: w
    altNegativeButton: 
    altPositiveButton: 
    gravity: 1000
    dead: 0.001
    sensitivity: 1000
    snap: 1
    invert: 0
    type: 0
    axis: 0
    joyNum: 1
  - serializedVersion: 3
    m_Name: Vertical2
    descriptiveName: 
    descriptiveNegativeName: 
    negativeButton: down
    positiveButton: up
    altNegativeButton: 
    altPositiveButton: 
    gravity: 1000
    dead: 0.001
    sensitivity: 1000
    snap: 1
    invert: 0
    type: 0
    axis: 0
    joyNum: 2
  - serializedVersion: 3
    m_Name: Left Punch
    descriptiveName: 
    descriptiveNegativeName: 
    negativeButton: 
    positiveButton: t
    altNegativeButton: 
    altPositiveButton: 
    gravity: 1000
    dead: 0.001
    sensitivity: 1000
    snap: 0
    invert: 0
    type: 0
    axis: 0
    joyNum: 1
  - serializedVersion: 3
    m_Name: Left Punch2
    descriptiveName: 
    descriptiveNegativeName: 
    negativeButton: 
    positiveButton: '[8]'
    altNegativeButton: 
    altPositiveButton: 
    gravity: 1000
    dead: 0.001
    sensitivity: 1000
    snap: 0
    invert: 0
    type: 0
    axis: 0
    joyNum: 2
  - serializedVersion: 3
    m_Name: Right Punch
    descriptiveName: 
    descriptiveNegativeName: 
    negativeButton: 
    positiveButton: y
    altNegativeButton: 
    altPositiveButton: 
    gravity: 1000
    dead: 0.001
    sensitivity: 1000
    snap: 0
    invert: 0
    type: 0
    axis: 0
    joyNum: 1
  - serializedVersion: 3
    m_Name: Right Punch2
    descriptiveName: 
    descriptiveNegativeName: 
    negativeButton: 
    positiveButton: '[9]'
    altNegativeButton: 
    altPositiveButton: 
    gravity: 1000
    dead: 0.001
    sensitivity: 1000
    snap: 0
    invert: 0
    type: 0
    axis: 0
    joyNum: 2
  - serializedVersion: 3
    m_Name: Left Kick
    descriptiveName: 
    descriptiveNegativeName: 
    negativeButton: 
    positiveButton: g
    altNegativeButton: 
    altPositiveButton: 
    gravity: 1000
    dead: 0.001
    sensitivity: 1000
    snap: 0
    invert: 0
    type: 0
    axis: 0
    joyNum: 1
  - serializedVersion: 3
    m_Name: Left Kick2
    descriptiveName: 
    descriptiveNegativeName: 
    negativeButton: 
    positiveButton: '[5]'
    altNegativeButton: 
    altPositiveButton: 
    gravity: 1000
    dead: 0.001
    sensitivity: 1000
    snap: 0
    invert: 0
    type: 0
    axis: 0
    joyNum: 2
  - serializedVersion: 3
    m_Name: Right Kick
    descriptiveName: 
    descriptiveNegativeName: 
    negativeButton: 
    positiveButton: h
    altNegativeButton: 
    altPositiveButton: 
    gravity: 1000
    dead: 0.001
    sensitivity: 1000
    snap: 0
    invert: 0
    type: 0
    axis: 0
    joyNum: 1
  - serializedVersion: 3
    m_Name: Right Kick2
    descriptiveName: 
    descriptiveNegativeName: 
    negativeButton: 
    positiveButton: '[6]'
    altNegativeButton: 
    altPositiveButton: 
    gravity: 1000
    dead: 0.001
    sensitivity: 1000
    snap: 0
    invert: 0
    type: 0
    axis: 0
    joyNum: 2
  - serializedVersion: 3
    m_Name: Horizontal
    descriptiveName: 
    descriptiveNegativeName: 
    negativeButton: 
    positiveButton: 
    altNegativeButton: 
    altPositiveButton: 
    gravity: 0
    dead: 0.19
    sensitivity: 1
    snap: 0
    invert: 0
    type: 2
    axis: 0
    joyNum: 1
  - serializedVersion: 3
    m_Name: Horizontal
    descriptiveName: 
    descriptiveNegativeName: 
    negativeButton: 
    positiveButton: 
    altNegativeButton: 
    altPositiveButton: 
    gravity: 0
    dead: 0.19
    sensitivity: 1
    snap: 0
    invert: 0
    type: 2
    axis: 6
    joyNum: 1
  - serializedVersion: 3
    m_Name: Horizontal2
    descriptiveName: 
    descriptiveNegativeName: 
    negativeButton: 
    positiveButton: 
    altNegativeButton: 
    altPositiveButton: 
    gravity: 0
    dead: 0.19
    sensitivity: 1
    snap: 0
    invert: 0
    type: 2
    axis: 0
    joyNum: 2
  - serializedVersion: 3
    m_Name: Horizontal2
    descriptiveName: 
    descriptiveNegativeName: 
    negativeButton: 
    positiveButton: 
    altNegativeButton: 
    altPositiveButton: 
    gravity: 0
    dead: 0.19
    sensitivity: 1
    snap: 0
    invert: 0
    type: 2
    axis: 6
    joyNum: 2
  - serializedVersion: 3
    m_Name: Vertical
    descriptiveName: 
    descriptiveNegativeName: 
    negativeButton: 
    positiveButton: 
    altNegativeButton: 
    altPositiveButton: 
    gravity: 0
    dead: 0.19
    sensitivity: 1
    snap: 0
    invert: 1
    type: 2
    axis: 1
    joyNum: 1
  - serializedVersion: 3
    m_Name: Vertical
    descriptiveName: 
    descriptiveNegativeName: 
    negativeButton: 
    positiveButton: 
    altNegativeButton: 
    altPositiveButton: 
    gravity: 0
    dead: 0.19
    sensitivity: 1
    snap: 0
    invert: 0
    type: 2
    axis: 7
    joyNum: 1
  - serializedVersion: 3
    m_Name: Vertical2
    descriptiveName: 
    descriptiveNegativeName: 
    negativeButton: 
    positiveButton: 
    altNegativeButton: 
    altPositiveButton: 
    gravity: 0
    dead: 0.19
    sensitivity: 1
    snap: 0
    invert: 0
    type: 2
    axis: 7
    joyNum: 2
  - serializedVersion: 3
    m_Name: Vertical2
    descriptiveName: 
    descriptiveNegativeName: 
    negativeButton: 
    positiveButton: 
    altNegativeButton: 
    altPositiveButton: 
    gravity: 0
    dead: 0.19
    sensitivity: 1
    snap: 0
    invert: 0
    type: 2
    axis: 7
    joyNum: 2
  - serializedVersion: 3
    m_Name: Left Punch
    descriptiveName: 
    descriptiveNegativeName: 
    negativeButton: 
    positiveButton: joystick 1 button 0
    altNegativeButton: 
    altPositiveButton: 
    gravity: 1000
    dead: 0.001
    sensitivity: 1000
    snap: 0
    invert: 0
    type: 2
    axis: 0
    joyNum: 1
  - serializedVersion: 3
    m_Name: Left Punch2
    descriptiveName: 
    descriptiveNegativeName: 
    negativeButton: 
    positiveButton: joystick 2 button 0
    altNegativeButton: 
    altPositiveButton: 
    gravity: 1000
    dead: 0.001
    sensitivity: 1000
    snap: 0
    invert: 0
    type: 2
    axis: 0
    joyNum: 2
  - serializedVersion: 3
    m_Name: Right Punch
    descriptiveName: 
    descriptiveNegativeName: 
    negativeButton: 
    positiveButton: joystick 1 button 1
    altNegativeButton: 
    altPositiveButton: 
    gravity: 1000
    dead: 0.001
    sensitivity: 1000
    snap: 0
    invert: 0
    type: 0
    axis: 0
    joyNum: 1
  - serializedVersion: 3
    m_Name: Right Punch2
    descriptiveName: 
    descriptiveNegativeName: 
    negativeButton: 
    positiveButton: joystick 2 button 1
    altNegativeButton: 
    altPositiveButton: 
    gravity: 1000
    dead: 0.001
    sensitivity: 1000
    snap: 0
    invert: 0
    type: 0
    axis: 0
    joyNum: 2
  - serializedVersion: 3
    m_Name: Left Kick
    descriptiveName: 
    descriptiveNegativeName: 
    negativeButton: 
    positiveButton: joystick 1 button 2
    altNegativeButton: 
    altPositiveButton: 
    gravity: 1000
    dead: 0.001
    sensitivity: 1000
    snap: 0
    invert: 0
    type: 0
    axis: 0
    joyNum: 1
  - serializedVersion: 3
    m_Name: Left Kick2
    descriptiveName: 
    descriptiveNegativeName: 
    negativeButton: 
    positiveButton: joystick 2 button 2
    altNegativeButton: 
    altPositiveButton: 
    gravity: 1000
    dead: 0.001
    sensitivity: 1000
    snap: 0
    invert: 0
    type: 0
    axis: 0
    joyNum: 2
  - serializedVersion: 3
    m_Name: Right Kick
    descriptiveName: 
    descriptiveNegativeName: 
    negativeButton: 
    positiveButton: joystick 1 button 3
    altNegativeButton: 
    altPositiveButton: 
    gravity: 1000
    dead: 0.001
    sensitivity: 1000
    snap: 0
    invert: 0
    type: 0
    axis: 0
    joyNum: 1
  - serializedVersion: 3
    m_Name: Right Kick2
    descriptiveName: 
    descriptiveNegativeName: 
    negativeButton: 
    positiveButton: joystick 2 button 3
    altNegativeButton: 
    altPositiveButton: 
    gravity: 1000
    dead: 0.001
    sensitivity: 1000
    snap: 0
    invert: 0
    type: 0
    axis: 0
    joyNum: 2
  - serializedVersion: 3
    m_Name: Submit
    descriptiveName: 
    descriptiveNegativeName: 
    negativeButton: 
    positiveButton: return
    altNegativeButton: 
    altPositiveButton: joystick button 0
    gravity: 1000
    dead: 0.001
    sensitivity: 1000
    snap: 0
    invert: 0
    type: 0
    axis: 0
    joyNum: 0
  - serializedVersion: 3
    m_Name: Submit
    descriptiveName: 
    descriptiveNegativeName: 
    negativeButton: 
    positiveButton: enter
    altNegativeButton: 
    altPositiveButton: space
    gravity: 1000
    dead: 0.001
    sensitivity: 1000
    snap: 0
    invert: 0
    type: 0
    axis: 0
    joyNum: 0
  - serializedVersion: 3
    m_Name: Cancel
    descriptiveName: 
    descriptiveNegativeName: 
    negativeButton: 
    positiveButton: escape
    altNegativeButton: 
    altPositiveButton: joystick button 1
    gravity: 1000
    dead: 0.001
    sensitivity: 1000
    snap: 0
    invert: 0
    type: 0
    axis: 0
    joyNum: 0
