%YAML 1.1
%TAG !u! tag:unity3d.com,2011:
--- !u!74 &7400000
AnimationClip:
  m_ObjectHideFlags: 0
  m_CorrespondingSourceObject: {fileID: 0}
  m_PrefabInstance: {fileID: 0}
  m_PrefabAsset: {fileID: 0}
  m_Name: Leighton_IdleLeft
  serializedVersion: 6
  m_Legacy: 0
  m_Compressed: 0
  m_UseHighQualityCurve: 1
  m_RotationCurves: []
  m_CompressedRotationCurves: []
  m_EulerCurves: []
  m_PositionCurves: []
  m_ScaleCurves: []
  m_FloatCurves: []
  m_PPtrCurves:
  - curve:
    - time: 0
      value: {fileID: -3442081657168985539, guid: 478fe57658c95ed439c934a59445d8a0,
        type: 3}
    - time: 0.13333334
      value: {fileID: 891378912725329584, guid: 478fe57658c95ed439c934a59445d8a0,
        type: 3}
    - time: 0.26666668
      value: {fileID: 5850908952225053272, guid: 478fe57658c95ed439c934a59445d8a0,
        type: 3}
    - time: 0.4
      value: {fileID: 7130510813961792577, guid: 478fe57658c95ed439c934a59445d8a0,
        type: 3}
    - time: 0.53333336
      value: {fileID: 1650106062077194062, guid: 478fe57658c95ed439c934a59445d8a0,
        type: 3}
    - time: 0.6666667
      value: {fileID: 3946381464803944906, guid: 478fe57658c95ed439c934a59445d8a0,
        type: 3}
    - time: 0.8
      value: {fileID: -3430626501557457614, guid: 478fe57658c95ed439c934a59445d8a0,
        type: 3}
    - time: 0.9166667
      value: {fileID: -3430626501557457614, guid: 478fe57658c95ed439c934a59445d8a0,
        type: 3}
    attribute: m_Sprite
    path: 
    classID: 212
    script: {fileID: 0}
  m_SampleRate: 60
  m_WrapMode: 0
  m_Bounds:
    m_Center: {x: 0, y: 0, z: 0}
    m_Extent: {x: 0, y: 0, z: 0}
  m_ClipBindingConstant:
    genericBindings:
    - serializedVersion: 2
      path: 0
      attribute: 0
      script: {fileID: 0}
      typeID: 212
      customType: 23
      isPPtrCurve: 1
    pptrCurveMapping:
    - {fileID: -3442081657168985539, guid: 478fe57658c95ed439c934a59445d8a0, type: 3}
    - {fileID: 891378912725329584, guid: 478fe57658c95ed439c934a59445d8a0, type: 3}
    - {fileID: 5850908952225053272, guid: 478fe57658c95ed439c934a59445d8a0, type: 3}
    - {fileID: 7130510813961792577, guid: 478fe57658c95ed439c934a59445d8a0, type: 3}
    - {fileID: 1650106062077194062, guid: 478fe57658c95ed439c934a59445d8a0, type: 3}
    - {fileID: 3946381464803944906, guid: 478fe57658c95ed439c934a59445d8a0, type: 3}
    - {fileID: -3430626501557457614, guid: 478fe57658c95ed439c934a59445d8a0, type: 3}
    - {fileID: -3430626501557457614, guid: 478fe57658c95ed439c934a59445d8a0, type: 3}
  m_AnimationClipSettings:
    serializedVersion: 2
    m_AdditiveReferencePoseClip: {fileID: 0}
    m_AdditiveReferencePoseTime: 0
    m_StartTime: 0
    m_StopTime: 0.93333334
    m_OrientationOffsetY: 0
    m_Level: 0
    m_CycleOffset: 0
    m_HasAdditiveReferencePose: 0
    m_LoopTime: 1
    m_LoopBlend: 0
    m_LoopBlendOrientation: 0
    m_LoopBlendPositionY: 0
    m_LoopBlendPositionXZ: 0
    m_KeepOriginalOrientation: 0
    m_KeepOriginalPositionY: 1
    m_KeepOriginalPositionXZ: 0
    m_HeightFromFeet: 0
    m_Mirror: 0
  m_EditorCurves: []
  m_EulerEditorCurves: []
  m_HasGenericRootTransform: 0
  m_HasMotionFloatCurves: 0
  m_Events: []
